('C:\\Users\\lcosta\\OneDrive - Schréder '
 'SA\\Documents\\G3plus\\Owlet_IoT_MessageInjector\\dist\\Owlet_IoT_MessageInjector_1.0.exe',
 True,
 False,
 False,
 'icon.ico',
 None,
 False,
 False,
 '<?xml version="1.0" encoding="UTF-8" standalone="yes"?><assembly xmlns="urn:schemas-microsoft-com:asm.v1" manifestVersion="1.0"><assemblyIdentity type="win32" name="Owlet_IoT_MessageInjector_1.0" processorArchitecture="amd64" version="1.0.0.0"/><trustInfo xmlns="urn:schemas-microsoft-com:asm.v3"><security><requestedPrivileges><requestedExecutionLevel level="asInvoker" uiAccess="false"/></requestedPrivileges></security></trustInfo><dependency><dependentAssembly><assemblyIdentity type="win32" name="Microsoft.Windows.Common-Controls" language="*" processorArchitecture="*" version="6.0.0.0" publicKeyToken="6595b64144ccf1df"/><compatibility xmlns="urn:schemas-microsoft-com:compatibility.v1"/></dependentAssembly></dependency><compatibility xmlns="urn:schemas-microsoft-com:compatibility.v1"><application><supportedOS Id="{e2011457-1546-43c5-a5fe-008deee3d3f0}"/><supportedOS Id="{35138b9a-5d96-4fbd-8e2d-a2440225f93a}"/><supportedOS Id="{4a2f28e3-53b9-4441-ba9c-d69d4a4a6e38}"/><supportedOS Id="{1f676c76-80e1-4239-95bb-83d0f6d0da78}"/><supportedOS Id="{8e0f7a12-bfb3-4fe8-b9a5-48fd50a15a9a}"/></application></compatibility><application xmlns="urn:schemas-microsoft-com:asm.v3"><windowsSettings><longPathAware xmlns="http://schemas.microsoft.com/SMI/2016/WindowsSettings">true</longPathAware></windowsSettings></application></assembly>',
 True,
 'Owlet_IoT_MessageInjector_1.0.pkg',
 [('PYZ-00.pyz',
   'C:\\Users\\lcosta\\OneDrive - Schréder '
   'SA\\Documents\\G3plus\\Owlet_IoT_MessageInjector\\build\\Owlet_IoT_MessageInjector_1.0\\PYZ-00.pyz',
   'PYZ'),
  ('struct',
   'c:\\users\\lcosta\\appdata\\local\\programs\\python\\python39\\lib\\struct.pyo',
   'PYMODULE'),
  ('pyimod01_os_path',
   'c:\\users\\lcosta\\appdata\\local\\programs\\python\\python39\\lib\\site-packages\\PyInstaller\\loader\\pyimod01_os_path.pyc',
   'PYMODULE'),
  ('pyimod02_archive',
   'c:\\users\\lcosta\\appdata\\local\\programs\\python\\python39\\lib\\site-packages\\PyInstaller\\loader\\pyimod02_archive.pyc',
   'PYMODULE'),
  ('pyimod03_importers',
   'c:\\users\\lcosta\\appdata\\local\\programs\\python\\python39\\lib\\site-packages\\PyInstaller\\loader\\pyimod03_importers.pyc',
   'PYMODULE'),
  ('pyiboot01_bootstrap',
   'c:\\users\\lcosta\\appdata\\local\\programs\\python\\python39\\lib\\site-packages\\PyInstaller\\loader\\pyiboot01_bootstrap.py',
   'PYSOURCE'),
  ('pyi_rth_multiprocessing',
   'C:\\Users\\lcosta\\AppData\\Local\\Programs\\Python\\Python39\\Lib\\site-packages\\PyInstaller\\hooks\\rthooks\\pyi_rth_multiprocessing.py',
   'PYSOURCE'),
  ('pyi_rth_win32api',
   'C:\\Users\\lcosta\\AppData\\Local\\Programs\\Python\\Python39\\Lib\\site-packages\\PyInstaller\\hooks\\rthooks\\pyi_rth_win32api.py',
   'PYSOURCE'),
  ('pyi_rth_pkgres',
   'C:\\Users\\lcosta\\AppData\\Local\\Programs\\Python\\Python39\\Lib\\site-packages\\PyInstaller\\hooks\\rthooks\\pyi_rth_pkgres.py',
   'PYSOURCE'),
  ('pyi_rth_win32comgenpy',
   'C:\\Users\\lcosta\\AppData\\Local\\Programs\\Python\\Python39\\Lib\\site-packages\\PyInstaller\\hooks\\rthooks\\pyi_rth_win32comgenpy.py',
   'PYSOURCE'),
  ('pyi_rth_certifi',
   'C:\\Users\\lcosta\\AppData\\Local\\Programs\\Python\\Python39\\Lib\\site-packages\\_pyinstaller_hooks_contrib\\hooks\\rthooks\\pyi_rth_certifi.py',
   'PYSOURCE'),
  ('main',
   'C:\\Users\\lcosta\\OneDrive - Schréder '
   'SA\\Documents\\G3plus\\Owlet_IoT_MessageInjector\\main.py',
   'PYSOURCE'),
  ('api-ms-win-crt-heap-l1-1-0.dll',
   'C:\\Program Files\\Java\\jre1.8.0_281\\bin\\api-ms-win-crt-heap-l1-1-0.dll',
   'BINARY'),
  ('api-ms-win-crt-stdio-l1-1-0.dll',
   'C:\\Program '
   'Files\\Java\\jre1.8.0_281\\bin\\api-ms-win-crt-stdio-l1-1-0.dll',
   'BINARY'),
  ('python39.dll',
   'c:\\users\\lcosta\\appdata\\local\\programs\\python\\python39\\python39.dll',
   'BINARY'),
  ('api-ms-win-crt-math-l1-1-0.dll',
   'C:\\Program Files\\Java\\jre1.8.0_281\\bin\\api-ms-win-crt-math-l1-1-0.dll',
   'BINARY'),
  ('api-ms-win-crt-locale-l1-1-0.dll',
   'C:\\Program '
   'Files\\Java\\jre1.8.0_281\\bin\\api-ms-win-crt-locale-l1-1-0.dll',
   'BINARY'),
  ('VCRUNTIME140.dll',
   'c:\\users\\lcosta\\appdata\\local\\programs\\python\\python39\\VCRUNTIME140.dll',
   'BINARY'),
  ('api-ms-win-crt-runtime-l1-1-0.dll',
   'C:\\Program '
   'Files\\Java\\jre1.8.0_281\\bin\\api-ms-win-crt-runtime-l1-1-0.dll',
   'BINARY'),
  ('ucrtbase.dll',
   'C:\\Program Files\\Java\\jre1.8.0_281\\bin\\ucrtbase.dll',
   'BINARY'),
  ('api-ms-win-crt-environment-l1-1-0.dll',
   'C:\\Program '
   'Files\\Java\\jre1.8.0_281\\bin\\api-ms-win-crt-environment-l1-1-0.dll',
   'BINARY'),
  ('api-ms-win-crt-conio-l1-1-0.dll',
   'C:\\Program '
   'Files\\Java\\jre1.8.0_281\\bin\\api-ms-win-crt-conio-l1-1-0.dll',
   'BINARY'),
  ('api-ms-win-crt-time-l1-1-0.dll',
   'C:\\Program Files\\Java\\jre1.8.0_281\\bin\\api-ms-win-crt-time-l1-1-0.dll',
   'BINARY'),
  ('api-ms-win-crt-convert-l1-1-0.dll',
   'C:\\Program '
   'Files\\Java\\jre1.8.0_281\\bin\\api-ms-win-crt-convert-l1-1-0.dll',
   'BINARY'),
  ('api-ms-win-crt-string-l1-1-0.dll',
   'C:\\Program '
   'Files\\Java\\jre1.8.0_281\\bin\\api-ms-win-crt-string-l1-1-0.dll',
   'BINARY'),
  ('api-ms-win-crt-process-l1-1-0.dll',
   'C:\\Program '
   'Files\\Java\\jre1.8.0_281\\bin\\api-ms-win-crt-process-l1-1-0.dll',
   'BINARY'),
  ('api-ms-win-crt-filesystem-l1-1-0.dll',
   'C:\\Program '
   'Files\\Java\\jre1.8.0_281\\bin\\api-ms-win-crt-filesystem-l1-1-0.dll',
   'BINARY'),
  ('api-ms-win-core-timezone-l1-1-0.dll',
   'C:\\Program '
   'Files\\Java\\jre1.8.0_281\\bin\\api-ms-win-core-timezone-l1-1-0.dll',
   'BINARY'),
  ('api-ms-win-core-rtlsupport-l1-1-0.dll',
   'C:\\Program '
   'Files\\Java\\jre1.8.0_281\\bin\\api-ms-win-core-rtlsupport-l1-1-0.dll',
   'BINARY'),
  ('api-ms-win-core-file-l1-1-0.dll',
   'C:\\Program '
   'Files\\Java\\jre1.8.0_281\\bin\\api-ms-win-core-file-l1-1-0.dll',
   'BINARY'),
  ('api-ms-win-core-processthreads-l1-1-1.dll',
   'C:\\Program '
   'Files\\Java\\jre1.8.0_281\\bin\\api-ms-win-core-processthreads-l1-1-1.dll',
   'BINARY'),
  ('api-ms-win-core-namedpipe-l1-1-0.dll',
   'C:\\Program '
   'Files\\Java\\jre1.8.0_281\\bin\\api-ms-win-core-namedpipe-l1-1-0.dll',
   'BINARY'),
  ('api-ms-win-core-processenvironment-l1-1-0.dll',
   'C:\\Program '
   'Files\\Java\\jre1.8.0_281\\bin\\api-ms-win-core-processenvironment-l1-1-0.dll',
   'BINARY'),
  ('api-ms-win-core-errorhandling-l1-1-0.dll',
   'C:\\Program '
   'Files\\Java\\jre1.8.0_281\\bin\\api-ms-win-core-errorhandling-l1-1-0.dll',
   'BINARY'),
  ('api-ms-win-core-handle-l1-1-0.dll',
   'C:\\Program '
   'Files\\Java\\jre1.8.0_281\\bin\\api-ms-win-core-handle-l1-1-0.dll',
   'BINARY'),
  ('api-ms-win-core-localization-l1-2-0.dll',
   'C:\\Program '
   'Files\\Java\\jre1.8.0_281\\bin\\api-ms-win-core-localization-l1-2-0.dll',
   'BINARY'),
  ('api-ms-win-core-file-l1-2-0.dll',
   'C:\\Program '
   'Files\\Java\\jre1.8.0_281\\bin\\api-ms-win-core-file-l1-2-0.dll',
   'BINARY'),
  ('api-ms-win-core-interlocked-l1-1-0.dll',
   'C:\\Program '
   'Files\\Java\\jre1.8.0_281\\bin\\api-ms-win-core-interlocked-l1-1-0.dll',
   'BINARY'),
  ('api-ms-win-core-memory-l1-1-0.dll',
   'C:\\Program '
   'Files\\Java\\jre1.8.0_281\\bin\\api-ms-win-core-memory-l1-1-0.dll',
   'BINARY'),
  ('api-ms-win-core-synch-l1-2-0.dll',
   'C:\\Program '
   'Files\\Java\\jre1.8.0_281\\bin\\api-ms-win-core-synch-l1-2-0.dll',
   'BINARY'),
  ('api-ms-win-core-file-l2-1-0.dll',
   'C:\\Program '
   'Files\\Java\\jre1.8.0_281\\bin\\api-ms-win-core-file-l2-1-0.dll',
   'BINARY'),
  ('api-ms-win-core-libraryloader-l1-1-0.dll',
   'C:\\Program '
   'Files\\Java\\jre1.8.0_281\\bin\\api-ms-win-core-libraryloader-l1-1-0.dll',
   'BINARY'),
  ('api-ms-win-core-profile-l1-1-0.dll',
   'C:\\Program '
   'Files\\Java\\jre1.8.0_281\\bin\\api-ms-win-core-profile-l1-1-0.dll',
   'BINARY'),
  ('api-ms-win-core-heap-l1-1-0.dll',
   'C:\\Program '
   'Files\\Java\\jre1.8.0_281\\bin\\api-ms-win-core-heap-l1-1-0.dll',
   'BINARY'),
  ('api-ms-win-core-debug-l1-1-0.dll',
   'C:\\Program '
   'Files\\Java\\jre1.8.0_281\\bin\\api-ms-win-core-debug-l1-1-0.dll',
   'BINARY'),
  ('api-ms-win-core-datetime-l1-1-0.dll',
   'C:\\Program '
   'Files\\Java\\jre1.8.0_281\\bin\\api-ms-win-core-datetime-l1-1-0.dll',
   'BINARY'),
  ('api-ms-win-core-sysinfo-l1-1-0.dll',
   'C:\\Program '
   'Files\\Java\\jre1.8.0_281\\bin\\api-ms-win-core-sysinfo-l1-1-0.dll',
   'BINARY'),
  ('api-ms-win-core-util-l1-1-0.dll',
   'C:\\Program '
   'Files\\Java\\jre1.8.0_281\\bin\\api-ms-win-core-util-l1-1-0.dll',
   'BINARY'),
  ('api-ms-win-core-processthreads-l1-1-0.dll',
   'C:\\Program '
   'Files\\Java\\jre1.8.0_281\\bin\\api-ms-win-core-processthreads-l1-1-0.dll',
   'BINARY'),
  ('api-ms-win-core-string-l1-1-0.dll',
   'C:\\Program '
   'Files\\Java\\jre1.8.0_281\\bin\\api-ms-win-core-string-l1-1-0.dll',
   'BINARY'),
  ('api-ms-win-core-synch-l1-1-0.dll',
   'C:\\Program '
   'Files\\Java\\jre1.8.0_281\\bin\\api-ms-win-core-synch-l1-1-0.dll',
   'BINARY'),
  ('api-ms-win-core-console-l1-1-0.dll',
   'C:\\Program '
   'Files\\Java\\jre1.8.0_281\\bin\\api-ms-win-core-console-l1-1-0.dll',
   'BINARY'),
  ('pywintypes39.dll',
   'c:\\users\\lcosta\\appdata\\local\\programs\\python\\python39\\lib\\site-packages\\pywin32_system32\\pywintypes39.dll',
   'BINARY'),
  ('pythoncom39.dll',
   'c:\\users\\lcosta\\appdata\\local\\programs\\python\\python39\\lib\\site-packages\\pywin32_system32\\pythoncom39.dll',
   'BINARY'),
  ('libopenblas.JPIJNSWNNAN3CE6LLI5FWSPHUT2VXMTH.gfortran-win_amd64.dll',
   'c:\\users\\lcosta\\appdata\\local\\programs\\python\\python39\\lib\\site-packages\\numpy\\.libs\\libopenblas.JPIJNSWNNAN3CE6LLI5FWSPHUT2VXMTH.gfortran-win_amd64.dll',
   'BINARY'),
  ('_decimal',
   'c:\\users\\lcosta\\appdata\\local\\programs\\python\\python39\\DLLs\\_decimal.pyd',
   'EXTENSION'),
  ('select',
   'c:\\users\\lcosta\\appdata\\local\\programs\\python\\python39\\DLLs\\select.pyd',
   'EXTENSION'),
  ('_overlapped',
   'c:\\users\\lcosta\\appdata\\local\\programs\\python\\python39\\DLLs\\_overlapped.pyd',
   'EXTENSION'),
  ('_asyncio',
   'c:\\users\\lcosta\\appdata\\local\\programs\\python\\python39\\DLLs\\_asyncio.pyd',
   'EXTENSION'),
  ('_queue',
   'c:\\users\\lcosta\\appdata\\local\\programs\\python\\python39\\DLLs\\_queue.pyd',
   'EXTENSION'),
  ('_ctypes',
   'c:\\users\\lcosta\\appdata\\local\\programs\\python\\python39\\DLLs\\_ctypes.pyd',
   'EXTENSION'),
  ('_multiprocessing',
   'c:\\users\\lcosta\\appdata\\local\\programs\\python\\python39\\DLLs\\_multiprocessing.pyd',
   'EXTENSION'),
  ('pyexpat',
   'c:\\users\\lcosta\\appdata\\local\\programs\\python\\python39\\DLLs\\pyexpat.pyd',
   'EXTENSION'),
  ('unicodedata',
   'c:\\users\\lcosta\\appdata\\local\\programs\\python\\python39\\DLLs\\unicodedata.pyd',
   'EXTENSION'),
  ('_hashlib',
   'c:\\users\\lcosta\\appdata\\local\\programs\\python\\python39\\DLLs\\_hashlib.pyd',
   'EXTENSION'),
  ('_lzma',
   'c:\\users\\lcosta\\appdata\\local\\programs\\python\\python39\\DLLs\\_lzma.pyd',
   'EXTENSION'),
  ('_bz2',
   'c:\\users\\lcosta\\appdata\\local\\programs\\python\\python39\\DLLs\\_bz2.pyd',
   'EXTENSION'),
  ('_socket',
   'c:\\users\\lcosta\\appdata\\local\\programs\\python\\python39\\DLLs\\_socket.pyd',
   'EXTENSION'),
  ('_ssl',
   'c:\\users\\lcosta\\appdata\\local\\programs\\python\\python39\\DLLs\\_ssl.pyd',
   'EXTENSION'),
  ('win32trace',
   'c:\\users\\lcosta\\appdata\\local\\programs\\python\\python39\\lib\\site-packages\\win32\\win32trace.pyd',
   'EXTENSION'),
  ('win32ui',
   'c:\\users\\lcosta\\appdata\\local\\programs\\python\\python39\\lib\\site-packages\\Pythonwin\\win32ui.pyd',
   'EXTENSION'),
  ('_win32sysloader',
   'c:\\users\\lcosta\\appdata\\local\\programs\\python\\python39\\lib\\site-packages\\win32\\_win32sysloader.pyd',
   'EXTENSION'),
  ('win32api',
   'c:\\users\\lcosta\\appdata\\local\\programs\\python\\python39\\lib\\site-packages\\win32\\win32api.pyd',
   'EXTENSION'),
  ('_uuid',
   'c:\\users\\lcosta\\appdata\\local\\programs\\python\\python39\\DLLs\\_uuid.pyd',
   'EXTENSION'),
  ('win32com.shell.shell',
   'c:\\users\\lcosta\\appdata\\local\\programs\\python\\python39\\lib\\site-packages\\win32comext\\shell\\shell.pyd',
   'EXTENSION'),
  ('greenlet._greenlet',
   'c:\\users\\lcosta\\appdata\\local\\programs\\python\\python39\\lib\\site-packages\\greenlet\\_greenlet.cp39-win_amd64.pyd',
   'EXTENSION'),
  ('zope.interface._zope_interface_coptimizations',
   'c:\\users\\lcosta\\appdata\\local\\programs\\python\\python39\\lib\\site-packages\\zope\\interface\\_zope_interface_coptimizations.cp39-win_amd64.pyd',
   'EXTENSION'),
  ('_elementtree',
   'c:\\users\\lcosta\\appdata\\local\\programs\\python\\python39\\DLLs\\_elementtree.pyd',
   'EXTENSION'),
  ('psutil._psutil_windows',
   'c:\\users\\lcosta\\appdata\\local\\programs\\python\\python39\\lib\\site-packages\\psutil\\_psutil_windows.cp39-win_amd64.pyd',
   'EXTENSION'),
  ('_cffi_backend',
   'c:\\users\\lcosta\\appdata\\local\\programs\\python\\python39\\lib\\site-packages\\_cffi_backend.cp39-win_amd64.pyd',
   'EXTENSION'),
  ('gevent._gevent_c_greenlet_primitives',
   'c:\\users\\lcosta\\appdata\\local\\programs\\python\\python39\\lib\\site-packages\\gevent\\_gevent_c_greenlet_primitives.cp39-win_amd64.pyd',
   'EXTENSION'),
  ('gevent._gevent_c_hub_local',
   'c:\\users\\lcosta\\appdata\\local\\programs\\python\\python39\\lib\\site-packages\\gevent\\_gevent_c_hub_local.cp39-win_amd64.pyd',
   'EXTENSION'),
  ('gevent._gevent_c_hub_primitives',
   'c:\\users\\lcosta\\appdata\\local\\programs\\python\\python39\\lib\\site-packages\\gevent\\_gevent_c_hub_primitives.cp39-win_amd64.pyd',
   'EXTENSION'),
  ('gevent._gevent_c_tracer',
   'c:\\users\\lcosta\\appdata\\local\\programs\\python\\python39\\lib\\site-packages\\gevent\\_gevent_c_tracer.cp39-win_amd64.pyd',
   'EXTENSION'),
  ('gevent._gevent_c_ident',
   'c:\\users\\lcosta\\appdata\\local\\programs\\python\\python39\\lib\\site-packages\\gevent\\_gevent_c_ident.cp39-win_amd64.pyd',
   'EXTENSION'),
  ('gevent._gevent_cqueue',
   'c:\\users\\lcosta\\appdata\\local\\programs\\python\\python39\\lib\\site-packages\\gevent\\_gevent_cqueue.cp39-win_amd64.pyd',
   'EXTENSION'),
  ('gevent._gevent_c_imap',
   'c:\\users\\lcosta\\appdata\\local\\programs\\python\\python39\\lib\\site-packages\\gevent\\_gevent_c_imap.cp39-win_amd64.pyd',
   'EXTENSION'),
  ('gevent._gevent_c_waiter',
   'c:\\users\\lcosta\\appdata\\local\\programs\\python\\python39\\lib\\site-packages\\gevent\\_gevent_c_waiter.cp39-win_amd64.pyd',
   'EXTENSION'),
  ('gevent.libev.corecext',
   'c:\\users\\lcosta\\appdata\\local\\programs\\python\\python39\\lib\\site-packages\\gevent\\libev\\corecext.cp39-win_amd64.pyd',
   'EXTENSION'),
  ('gevent._gevent_clocal',
   'c:\\users\\lcosta\\appdata\\local\\programs\\python\\python39\\lib\\site-packages\\gevent\\_gevent_clocal.cp39-win_amd64.pyd',
   'EXTENSION'),
  ('gevent._gevent_c_semaphore',
   'c:\\users\\lcosta\\appdata\\local\\programs\\python\\python39\\lib\\site-packages\\gevent\\_gevent_c_semaphore.cp39-win_amd64.pyd',
   'EXTENSION'),
  ('gevent._gevent_c_abstract_linkable',
   'c:\\users\\lcosta\\appdata\\local\\programs\\python\\python39\\lib\\site-packages\\gevent\\_gevent_c_abstract_linkable.cp39-win_amd64.pyd',
   'EXTENSION'),
  ('gevent._gevent_cevent',
   'c:\\users\\lcosta\\appdata\\local\\programs\\python\\python39\\lib\\site-packages\\gevent\\_gevent_cevent.cp39-win_amd64.pyd',
   'EXTENSION'),
  ('gevent.libuv._corecffi',
   'c:\\users\\lcosta\\appdata\\local\\programs\\python\\python39\\lib\\site-packages\\gevent\\libuv\\_corecffi.pyd',
   'EXTENSION'),
  ('gevent._gevent_cgreenlet',
   'c:\\users\\lcosta\\appdata\\local\\programs\\python\\python39\\lib\\site-packages\\gevent\\_gevent_cgreenlet.cp39-win_amd64.pyd',
   'EXTENSION'),
  ('numpy.core._multiarray_umath',
   'c:\\users\\lcosta\\appdata\\local\\programs\\python\\python39\\lib\\site-packages\\numpy\\core\\_multiarray_umath.cp39-win_amd64.pyd',
   'EXTENSION'),
  ('numpy.core._multiarray_tests',
   'c:\\users\\lcosta\\appdata\\local\\programs\\python\\python39\\lib\\site-packages\\numpy\\core\\_multiarray_tests.cp39-win_amd64.pyd',
   'EXTENSION'),
  ('win32pdh',
   'c:\\users\\lcosta\\appdata\\local\\programs\\python\\python39\\lib\\site-packages\\win32\\win32pdh.pyd',
   'EXTENSION'),
  ('numpy.linalg.lapack_lite',
   'c:\\users\\lcosta\\appdata\\local\\programs\\python\\python39\\lib\\site-packages\\numpy\\linalg\\lapack_lite.cp39-win_amd64.pyd',
   'EXTENSION'),
  ('numpy.random.mtrand',
   'c:\\users\\lcosta\\appdata\\local\\programs\\python\\python39\\lib\\site-packages\\numpy\\random\\mtrand.cp39-win_amd64.pyd',
   'EXTENSION'),
  ('numpy.random._sfc64',
   'c:\\users\\lcosta\\appdata\\local\\programs\\python\\python39\\lib\\site-packages\\numpy\\random\\_sfc64.cp39-win_amd64.pyd',
   'EXTENSION'),
  ('numpy.random._philox',
   'c:\\users\\lcosta\\appdata\\local\\programs\\python\\python39\\lib\\site-packages\\numpy\\random\\_philox.cp39-win_amd64.pyd',
   'EXTENSION'),
  ('numpy.random._pcg64',
   'c:\\users\\lcosta\\appdata\\local\\programs\\python\\python39\\lib\\site-packages\\numpy\\random\\_pcg64.cp39-win_amd64.pyd',
   'EXTENSION'),
  ('numpy.random._mt19937',
   'c:\\users\\lcosta\\appdata\\local\\programs\\python\\python39\\lib\\site-packages\\numpy\\random\\_mt19937.cp39-win_amd64.pyd',
   'EXTENSION'),
  ('numpy.random.bit_generator',
   'c:\\users\\lcosta\\appdata\\local\\programs\\python\\python39\\lib\\site-packages\\numpy\\random\\bit_generator.cp39-win_amd64.pyd',
   'EXTENSION'),
  ('numpy.random._generator',
   'c:\\users\\lcosta\\appdata\\local\\programs\\python\\python39\\lib\\site-packages\\numpy\\random\\_generator.cp39-win_amd64.pyd',
   'EXTENSION'),
  ('numpy.random._bounded_integers',
   'c:\\users\\lcosta\\appdata\\local\\programs\\python\\python39\\lib\\site-packages\\numpy\\random\\_bounded_integers.cp39-win_amd64.pyd',
   'EXTENSION'),
  ('numpy.random._common',
   'c:\\users\\lcosta\\appdata\\local\\programs\\python\\python39\\lib\\site-packages\\numpy\\random\\_common.cp39-win_amd64.pyd',
   'EXTENSION'),
  ('numpy.fft._pocketfft_internal',
   'c:\\users\\lcosta\\appdata\\local\\programs\\python\\python39\\lib\\site-packages\\numpy\\fft\\_pocketfft_internal.cp39-win_amd64.pyd',
   'EXTENSION'),
  ('numpy.linalg._umath_linalg',
   'c:\\users\\lcosta\\appdata\\local\\programs\\python\\python39\\lib\\site-packages\\numpy\\linalg\\_umath_linalg.cp39-win_amd64.pyd',
   'EXTENSION'),
  ('cryptography.hazmat.bindings._openssl',
   'c:\\users\\lcosta\\appdata\\local\\programs\\python\\python39\\lib\\site-packages\\cryptography\\hazmat\\bindings\\_openssl.pyd',
   'EXTENSION'),
  ('api-ms-win-crt-utility-l1-1-0.dll',
   'C:\\Program '
   'Files\\Java\\jre1.8.0_281\\bin\\api-ms-win-crt-utility-l1-1-0.dll',
   'BINARY'),
  ('libffi-7.dll',
   'c:\\users\\lcosta\\appdata\\local\\programs\\python\\python39\\DLLs\\libffi-7.dll',
   'BINARY'),
  ('libcrypto-1_1.dll',
   'c:\\users\\lcosta\\appdata\\local\\programs\\python\\python39\\DLLs\\libcrypto-1_1.dll',
   'BINARY'),
  ('libssl-1_1.dll',
   'c:\\users\\lcosta\\appdata\\local\\programs\\python\\python39\\DLLs\\libssl-1_1.dll',
   'BINARY'),
  ('mfc140u.dll',
   'c:\\users\\lcosta\\appdata\\local\\programs\\python\\python39\\lib\\site-packages\\Pythonwin\\mfc140u.dll',
   'BINARY'),
  ('python3.dll',
   'c:\\users\\lcosta\\appdata\\local\\programs\\python\\python39\\python3.dll',
   'BINARY'),
  ('api-ms-win-crt-multibyte-l1-1-0.dll',
   'C:\\Program '
   'Files\\Java\\jre1.8.0_281\\bin\\api-ms-win-crt-multibyte-l1-1-0.dll',
   'BINARY'),
  ('base_library.zip',
   'C:\\Users\\lcosta\\OneDrive - Schréder '
   'SA\\Documents\\G3plus\\Owlet_IoT_MessageInjector\\build\\Owlet_IoT_MessageInjector_1.0\\base_library.zip',
   'DATA'),
  ('gevent-21.1.2-py3.9.egg-info\\METADATA',
   'c:\\users\\lcosta\\appdata\\local\\programs\\python\\python39\\lib\\site-packages\\gevent-21.1.2.dist-info\\METADATA',
   'DATA'),
  ('gevent-21.1.2-py3.9.egg-info\\NOTICE',
   'c:\\users\\lcosta\\appdata\\local\\programs\\python\\python39\\lib\\site-packages\\gevent-21.1.2.dist-info\\NOTICE',
   'DATA'),
  ('cryptography-3.4.6-py3.9.egg-info\\INSTALLER',
   'c:\\users\\lcosta\\appdata\\local\\programs\\python\\python39\\lib\\site-packages\\cryptography-3.4.6.dist-info\\INSTALLER',
   'DATA'),
  ('eel\\eel.js',
   'c:\\users\\lcosta\\appdata\\local\\programs\\python\\python39\\lib\\site-packages\\eel\\eel.js',
   'DATA'),
  ('gevent-21.1.2-py3.9.egg-info\\LICENSE',
   'c:\\users\\lcosta\\appdata\\local\\programs\\python\\python39\\lib\\site-packages\\gevent-21.1.2.dist-info\\LICENSE',
   'DATA'),
  ('gevent-21.1.2-py3.9.egg-info\\entry_points.txt',
   'c:\\users\\lcosta\\appdata\\local\\programs\\python\\python39\\lib\\site-packages\\gevent-21.1.2.dist-info\\entry_points.txt',
   'DATA'),
  ('certifi\\cacert.pem',
   'c:\\users\\lcosta\\appdata\\local\\programs\\python\\python39\\lib\\site-packages\\certifi\\cacert.pem',
   'DATA'),
  ('gevent-21.1.2-py3.9.egg-info\\AUTHORS',
   'c:\\users\\lcosta\\appdata\\local\\programs\\python\\python39\\lib\\site-packages\\gevent-21.1.2.dist-info\\AUTHORS',
   'DATA'),
  ('gevent-21.1.2-py3.9.egg-info\\WHEEL',
   'c:\\users\\lcosta\\appdata\\local\\programs\\python\\python39\\lib\\site-packages\\gevent-21.1.2.dist-info\\WHEEL',
   'DATA'),
  ('cryptography-3.4.6-py3.9.egg-info\\WHEEL',
   'c:\\users\\lcosta\\appdata\\local\\programs\\python\\python39\\lib\\site-packages\\cryptography-3.4.6.dist-info\\WHEEL',
   'DATA'),
  ('gevent-21.1.2-py3.9.egg-info\\INSTALLER',
   'c:\\users\\lcosta\\appdata\\local\\programs\\python\\python39\\lib\\site-packages\\gevent-21.1.2.dist-info\\INSTALLER',
   'DATA'),
  ('cryptography-3.4.6-py3.9.egg-info\\top_level.txt',
   'c:\\users\\lcosta\\appdata\\local\\programs\\python\\python39\\lib\\site-packages\\cryptography-3.4.6.dist-info\\top_level.txt',
   'DATA'),
  ('cryptography-3.4.6-py3.9.egg-info\\LICENSE.BSD',
   'c:\\users\\lcosta\\appdata\\local\\programs\\python\\python39\\lib\\site-packages\\cryptography-3.4.6.dist-info\\LICENSE.BSD',
   'DATA'),
  ('cryptography-3.4.6-py3.9.egg-info\\METADATA',
   'c:\\users\\lcosta\\appdata\\local\\programs\\python\\python39\\lib\\site-packages\\cryptography-3.4.6.dist-info\\METADATA',
   'DATA'),
  ('cryptography-3.4.6-py3.9.egg-info\\LICENSE.PSF',
   'c:\\users\\lcosta\\appdata\\local\\programs\\python\\python39\\lib\\site-packages\\cryptography-3.4.6.dist-info\\LICENSE.PSF',
   'DATA'),
  ('gevent-21.1.2-py3.9.egg-info\\top_level.txt',
   'c:\\users\\lcosta\\appdata\\local\\programs\\python\\python39\\lib\\site-packages\\gevent-21.1.2.dist-info\\top_level.txt',
   'DATA'),
  ('cryptography-3.4.6-py3.9.egg-info\\LICENSE',
   'c:\\users\\lcosta\\appdata\\local\\programs\\python\\python39\\lib\\site-packages\\cryptography-3.4.6.dist-info\\LICENSE',
   'DATA'),
  ('gevent-21.1.2-py3.9.egg-info\\RECORD',
   'c:\\users\\lcosta\\appdata\\local\\programs\\python\\python39\\lib\\site-packages\\gevent-21.1.2.dist-info\\RECORD',
   'DATA'),
  ('cryptography-3.4.6-py3.9.egg-info\\RECORD',
   'c:\\users\\lcosta\\appdata\\local\\programs\\python\\python39\\lib\\site-packages\\cryptography-3.4.6.dist-info\\RECORD',
   'DATA'),
  ('cryptography-3.4.6-py3.9.egg-info\\LICENSE.APACHE',
   'c:\\users\\lcosta\\appdata\\local\\programs\\python\\python39\\lib\\site-packages\\cryptography-3.4.6.dist-info\\LICENSE.APACHE',
   'DATA'),
  ('gui\\images\\btn_ui_highlighted.png',
   'C:\\Users\\lcosta\\OneDrive - Schréder '
   'SA\\Documents\\G3plus\\Owlet_IoT_MessageInjector\\gui\\images\\btn_ui_highlighted.png',
   'DATA'),
  ('gui\\images\\btn_automation_normal.svg',
   'C:\\Users\\lcosta\\OneDrive - Schréder '
   'SA\\Documents\\G3plus\\Owlet_IoT_MessageInjector\\gui\\images\\btn_automation_normal.svg',
   'DATA'),
  ('gui\\images\\hyperion_footer.png',
   'C:\\Users\\lcosta\\OneDrive - Schréder '
   'SA\\Documents\\G3plus\\Owlet_IoT_MessageInjector\\gui\\images\\hyperion_footer.png',
   'DATA'),
  ('gui\\device2cloud.html',
   'C:\\Users\\lcosta\\OneDrive - Schréder '
   'SA\\Documents\\G3plus\\Owlet_IoT_MessageInjector\\gui\\device2cloud.html',
   'DATA'),
  ('gui\\images\\btn_settings_highlighted_2.svg',
   'C:\\Users\\lcosta\\OneDrive - Schréder '
   'SA\\Documents\\G3plus\\Owlet_IoT_MessageInjector\\gui\\images\\btn_settings_highlighted_2.svg',
   'DATA'),
  ('gui\\images\\btn_settings_highlighted.png',
   'C:\\Users\\lcosta\\OneDrive - Schréder '
   'SA\\Documents\\G3plus\\Owlet_IoT_MessageInjector\\gui\\images\\btn_settings_highlighted.png',
   'DATA'),
  ('gui\\images\\btn_device_highlighted_2.svg',
   'C:\\Users\\lcosta\\OneDrive - Schréder '
   'SA\\Documents\\G3plus\\Owlet_IoT_MessageInjector\\gui\\images\\btn_device_highlighted_2.svg',
   'DATA'),
  ('gui\\images\\btn_cloud_normal.png',
   'C:\\Users\\lcosta\\OneDrive - Schréder '
   'SA\\Documents\\G3plus\\Owlet_IoT_MessageInjector\\gui\\images\\btn_cloud_normal.png',
   'DATA'),
  ('gui\\images\\btn_device_highlighted.png',
   'C:\\Users\\lcosta\\OneDrive - Schréder '
   'SA\\Documents\\G3plus\\Owlet_IoT_MessageInjector\\gui\\images\\btn_device_highlighted.png',
   'DATA'),
  ('gui\\index.html',
   'C:\\Users\\lcosta\\OneDrive - Schréder '
   'SA\\Documents\\G3plus\\Owlet_IoT_MessageInjector\\gui\\index.html',
   'DATA'),
  ('gui\\images\\btn_exit.png',
   'C:\\Users\\lcosta\\OneDrive - Schréder '
   'SA\\Documents\\G3plus\\Owlet_IoT_MessageInjector\\gui\\images\\btn_exit.png',
   'DATA'),
  ('gui\\images\\btn_device_normal.png',
   'C:\\Users\\lcosta\\OneDrive - Schréder '
   'SA\\Documents\\G3plus\\Owlet_IoT_MessageInjector\\gui\\images\\btn_device_normal.png',
   'DATA'),
  ('gui\\images\\btn_cloud_highlighted_2.svg',
   'C:\\Users\\lcosta\\OneDrive - Schréder '
   'SA\\Documents\\G3plus\\Owlet_IoT_MessageInjector\\gui\\images\\btn_cloud_highlighted_2.svg',
   'DATA'),
  ('gui\\js\\settings.js',
   'C:\\Users\\lcosta\\OneDrive - Schréder '
   'SA\\Documents\\G3plus\\Owlet_IoT_MessageInjector\\gui\\js\\settings.js',
   'DATA'),
  ('gui\\images\\btn_cloud_highlighted.svg',
   'C:\\Users\\lcosta\\OneDrive - Schréder '
   'SA\\Documents\\G3plus\\Owlet_IoT_MessageInjector\\gui\\images\\btn_cloud_highlighted.svg',
   'DATA'),
  ('gui\\images\\btn_home_highlighted.png',
   'C:\\Users\\lcosta\\OneDrive - Schréder '
   'SA\\Documents\\G3plus\\Owlet_IoT_MessageInjector\\gui\\images\\btn_home_highlighted.png',
   'DATA'),
  ('gui\\images\\btn_cloud_highlighted.png',
   'C:\\Users\\lcosta\\OneDrive - Schréder '
   'SA\\Documents\\G3plus\\Owlet_IoT_MessageInjector\\gui\\images\\btn_cloud_highlighted.png',
   'DATA'),
  ('gui\\images\\vertical_menu_gradient.png',
   'C:\\Users\\lcosta\\OneDrive - Schréder '
   'SA\\Documents\\G3plus\\Owlet_IoT_MessageInjector\\gui\\images\\vertical_menu_gradient.png',
   'DATA'),
  ('gui\\images\\btn_settings_normal.svg',
   'C:\\Users\\lcosta\\OneDrive - Schréder '
   'SA\\Documents\\G3plus\\Owlet_IoT_MessageInjector\\gui\\images\\btn_settings_normal.svg',
   'DATA'),
  ('gui\\images\\btn_automation_highlighted.svg',
   'C:\\Users\\lcosta\\OneDrive - Schréder '
   'SA\\Documents\\G3plus\\Owlet_IoT_MessageInjector\\gui\\images\\btn_automation_highlighted.svg',
   'DATA'),
  ('gui\\js\\javascripts.js',
   'C:\\Users\\lcosta\\OneDrive - Schréder '
   'SA\\Documents\\G3plus\\Owlet_IoT_MessageInjector\\gui\\js\\javascripts.js',
   'DATA'),
  ('gui\\images\\btn_ui_highlighted.svg',
   'C:\\Users\\lcosta\\OneDrive - Schréder '
   'SA\\Documents\\G3plus\\Owlet_IoT_MessageInjector\\gui\\images\\btn_ui_highlighted.svg',
   'DATA'),
  ('gui\\images\\btn_home_normal.png',
   'C:\\Users\\lcosta\\OneDrive - Schréder '
   'SA\\Documents\\G3plus\\Owlet_IoT_MessageInjector\\gui\\images\\btn_home_normal.png',
   'DATA'),
  ('gui\\images\\btn_cloud_normal.svg',
   'C:\\Users\\lcosta\\OneDrive - Schréder '
   'SA\\Documents\\G3plus\\Owlet_IoT_MessageInjector\\gui\\images\\btn_cloud_normal.svg',
   'DATA'),
  ('gui\\images\\btn_home_normal.svg',
   'C:\\Users\\lcosta\\OneDrive - Schréder '
   'SA\\Documents\\G3plus\\Owlet_IoT_MessageInjector\\gui\\images\\btn_home_normal.svg',
   'DATA'),
  ('gui\\images\\LOGO SCHREDER HYPERION.png',
   'C:\\Users\\lcosta\\OneDrive - Schréder '
   'SA\\Documents\\G3plus\\Owlet_IoT_MessageInjector\\gui\\images\\LOGO '
   'SCHREDER HYPERION.png',
   'DATA'),
  ('gui\\images\\btn_settings_normal.png',
   'C:\\Users\\lcosta\\OneDrive - Schréder '
   'SA\\Documents\\G3plus\\Owlet_IoT_MessageInjector\\gui\\images\\btn_settings_normal.png',
   'DATA'),
  ('gui\\settings.html',
   'C:\\Users\\lcosta\\OneDrive - Schréder '
   'SA\\Documents\\G3plus\\Owlet_IoT_MessageInjector\\gui\\settings.html',
   'DATA'),
  ('gui\\images\\btn_device_normal.svg',
   'C:\\Users\\lcosta\\OneDrive - Schréder '
   'SA\\Documents\\G3plus\\Owlet_IoT_MessageInjector\\gui\\images\\btn_device_normal.svg',
   'DATA'),
  ('gui\\styles.css',
   'C:\\Users\\lcosta\\OneDrive - Schréder '
   'SA\\Documents\\G3plus\\Owlet_IoT_MessageInjector\\gui\\styles.css',
   'DATA'),
  ('gui\\images\\btn_ui_normal.svg',
   'C:\\Users\\lcosta\\OneDrive - Schréder '
   'SA\\Documents\\G3plus\\Owlet_IoT_MessageInjector\\gui\\images\\btn_ui_normal.svg',
   'DATA'),
  ('gui\\images\\btn_automation_highlighted_2.svg',
   'C:\\Users\\lcosta\\OneDrive - Schréder '
   'SA\\Documents\\G3plus\\Owlet_IoT_MessageInjector\\gui\\images\\btn_automation_highlighted_2.svg',
   'DATA'),
  ('gui\\js\\coap.js',
   'C:\\Users\\lcosta\\OneDrive - Schréder '
   'SA\\Documents\\G3plus\\Owlet_IoT_MessageInjector\\gui\\js\\coap.js',
   'DATA'),
  ('gui\\images\\btn_ui_highlighted_2.svg',
   'C:\\Users\\lcosta\\OneDrive - Schréder '
   'SA\\Documents\\G3plus\\Owlet_IoT_MessageInjector\\gui\\images\\btn_ui_highlighted_2.svg',
   'DATA'),
  ('gui\\images\\btn_ui_normal.png',
   'C:\\Users\\lcosta\\OneDrive - Schréder '
   'SA\\Documents\\G3plus\\Owlet_IoT_MessageInjector\\gui\\images\\btn_ui_normal.png',
   'DATA'),
  ('gui\\images\\Picture1.svg',
   'C:\\Users\\lcosta\\OneDrive - Schréder '
   'SA\\Documents\\G3plus\\Owlet_IoT_MessageInjector\\gui\\images\\Picture1.svg',
   'DATA'),
  ('gui\\images\\btn_settings_highlighted.svg',
   'C:\\Users\\lcosta\\OneDrive - Schréder '
   'SA\\Documents\\G3plus\\Owlet_IoT_MessageInjector\\gui\\images\\btn_settings_highlighted.svg',
   'DATA'),
  ('gui\\images\\btn_exit.svg',
   'C:\\Users\\lcosta\\OneDrive - Schréder '
   'SA\\Documents\\G3plus\\Owlet_IoT_MessageInjector\\gui\\images\\btn_exit.svg',
   'DATA'),
  ('gui\\images\\btn_device_highlighted.svg',
   'C:\\Users\\lcosta\\OneDrive - Schréder '
   'SA\\Documents\\G3plus\\Owlet_IoT_MessageInjector\\gui\\images\\btn_device_highlighted.svg',
   'DATA'),
  ('gui\\images\\btn_home_highlighted.svg',
   'C:\\Users\\lcosta\\OneDrive - Schréder '
   'SA\\Documents\\G3plus\\Owlet_IoT_MessageInjector\\gui\\images\\btn_home_highlighted.svg',
   'DATA'),
  ('Owlet_IoT_MessageInjector_1.0.exe.manifest',
   'C:\\Users\\lcosta\\OneDrive - Schréder '
   'SA\\Documents\\G3plus\\Owlet_IoT_MessageInjector\\build\\Owlet_IoT_MessageInjector_1.0\\Owlet_IoT_MessageInjector_1.0.exe.manifest',
   'BINARY'),
  ('pyi-windows-manifest-filename Owlet_IoT_MessageInjector_1.0.exe.manifest',
   '',
   'OPTION')],
 [],
 False,
 False,
 1618769064,
 [('run.exe',
   'c:\\users\\lcosta\\appdata\\local\\programs\\python\\python39\\lib\\site-packages\\PyInstaller\\bootloader\\Windows-64bit\\run.exe',
   'EXECUTABLE')])
